simulation/qsim/alien.msim.vcd
$comment
	File created using the following command:
		vcd file alien.msim.vcd -direction
$end
$date
	Fri Jan 17 01:21:17 2020
$end
$version
	ModelSim Version 10.5b
$end
$timescale
	1ps
$end

$scope module cuenta_vhd_vec_tst $end
$var wire 1 ! clock $end
$var wire 1 " der $end
$var wire 1 # enable $end
$var wire 1 $ F1 [7] $end
$var wire 1 % F1 [6] $end
$var wire 1 & F1 [5] $end
$var wire 1 ' F1 [4] $end
$var wire 1 ( F1 [3] $end
$var wire 1 ) F1 [2] $end
$var wire 1 * F1 [1] $end
$var wire 1 + F1 [0] $end
$var wire 1 , izq $end
$var wire 1 - posdisparo [7] $end
$var wire 1 . posdisparo [6] $end
$var wire 1 / posdisparo [5] $end
$var wire 1 0 posdisparo [4] $end
$var wire 1 1 posdisparo [3] $end
$var wire 1 2 posdisparo [2] $end
$var wire 1 3 posdisparo [1] $end
$var wire 1 4 posdisparo [0] $end
$var wire 1 5 reset $end

$scope module i1 $end
$var wire 1 6 gnd $end
$var wire 1 7 vcc $end
$var wire 1 8 unknown $end
$var wire 1 9 devoe $end
$var wire 1 : devclrn $end
$var wire 1 ; devpor $end
$var wire 1 < ww_devoe $end
$var wire 1 = ww_devclrn $end
$var wire 1 > ww_devpor $end
$var wire 1 ? ww_clock $end
$var wire 1 @ ww_enable $end
$var wire 1 A ww_reset $end
$var wire 1 B ww_izq $end
$var wire 1 C ww_der $end
$var wire 1 D ww_F1 [7] $end
$var wire 1 E ww_F1 [6] $end
$var wire 1 F ww_F1 [5] $end
$var wire 1 G ww_F1 [4] $end
$var wire 1 H ww_F1 [3] $end
$var wire 1 I ww_F1 [2] $end
$var wire 1 J ww_F1 [1] $end
$var wire 1 K ww_F1 [0] $end
$var wire 1 L ww_posdisparo [7] $end
$var wire 1 M ww_posdisparo [6] $end
$var wire 1 N ww_posdisparo [5] $end
$var wire 1 O ww_posdisparo [4] $end
$var wire 1 P ww_posdisparo [3] $end
$var wire 1 Q ww_posdisparo [2] $end
$var wire 1 R ww_posdisparo [1] $end
$var wire 1 S ww_posdisparo [0] $end
$var wire 1 T \enable~input_o\ $end
$var wire 1 U \F1[1]~input_o\ $end
$var wire 1 V \F1[2]~input_o\ $end
$var wire 1 W \F1[3]~input_o\ $end
$var wire 1 X \F1[4]~input_o\ $end
$var wire 1 Y \F1[5]~input_o\ $end
$var wire 1 Z \F1[6]~input_o\ $end
$var wire 1 [ \posdisparo[0]~output_o\ $end
$var wire 1 \ \posdisparo[1]~output_o\ $end
$var wire 1 ] \posdisparo[2]~output_o\ $end
$var wire 1 ^ \posdisparo[3]~output_o\ $end
$var wire 1 _ \posdisparo[4]~output_o\ $end
$var wire 1 ` \posdisparo[5]~output_o\ $end
$var wire 1 a \posdisparo[6]~output_o\ $end
$var wire 1 b \posdisparo[7]~output_o\ $end
$var wire 1 c \clock~input_o\ $end
$var wire 1 d \posdisparo[0]~8_combout\ $end
$var wire 1 e \reset~input_o\ $end
$var wire 1 f \izq~input_o\ $end
$var wire 1 g \der~input_o\ $end
$var wire 1 h \F1[7]~input_o\ $end
$var wire 1 i \F1[0]~input_o\ $end
$var wire 1 j \posdisparo~10_combout\ $end
$var wire 1 k \posdisparo[0]~reg0_q\ $end
$var wire 1 l \process_0~0_combout\ $end
$var wire 1 m \posdisparo[0]~9\ $end
$var wire 1 n \posdisparo[1]~11_combout\ $end
$var wire 1 o \posdisparo[1]~reg0_q\ $end
$var wire 1 p \posdisparo[1]~12\ $end
$var wire 1 q \posdisparo[2]~13_combout\ $end
$var wire 1 r \posdisparo[2]~reg0_q\ $end
$var wire 1 s \posdisparo[2]~14\ $end
$var wire 1 t \posdisparo[3]~15_combout\ $end
$var wire 1 u \posdisparo[3]~reg0_q\ $end
$var wire 1 v \posdisparo[3]~16\ $end
$var wire 1 w \posdisparo[4]~17_combout\ $end
$var wire 1 x \posdisparo[4]~reg0_q\ $end
$var wire 1 y \posdisparo[4]~18\ $end
$var wire 1 z \posdisparo[5]~19_combout\ $end
$var wire 1 { \posdisparo[5]~reg0_q\ $end
$var wire 1 | \posdisparo[5]~20\ $end
$var wire 1 } \posdisparo[6]~21_combout\ $end
$var wire 1 ~ \posdisparo[6]~reg0_q\ $end
$var wire 1 !! \posdisparo[6]~22\ $end
$var wire 1 "! \posdisparo[7]~23_combout\ $end
$var wire 1 #! \posdisparo[7]~reg0_q\ $end
$upscope $end
$upscope $end
$enddefinitions $end
#0
$dumpvars
0!
0"
1#
0,
15
06
17
x8
19
1:
1;
1<
1=
1>
0?
1@
1A
0B
0C
1T
0U
0V
0W
0X
0Y
0Z
0[
0\
0]
0^
0_
0`
0a
0b
0c
1d
1e
0f
0g
0h
0i
0j
0k
0l
0m
1n
0o
1p
1q
0r
0s
1t
0u
1v
1w
0x
0y
1z
0{
1|
1}
0~
0!!
1"!
0#!
0$
0%
0&
0'
0(
0)
0*
0+
0-
0.
0/
00
01
02
03
04
0D
0E
0F
0G
0H
0I
0J
0K
0L
0M
0N
0O
0P
0Q
0R
0S
$end
#10000
05
0A
0e
#60000
15
1A
1e
#200000
1,
1B
1f
1j
1l
0n
0q
0t
0w
0z
0}
0"!
#210000
1!
1?
1c
1k
0d
1m
1n
1[
1S
14
#230000
0!
0,
0?
0B
0f
0c
0j
0l
0n
0p
1q
1t
1w
1z
1}
1"!
0q
1s
0t
0v
0w
1y
0z
0|
0}
1!!
0"!
#240000
1,
1B
1f
1j
1l
1n
1p
1q
0s
1t
1v
1w
0y
1z
1|
1}
0!!
1"!
0"!
0}
0z
0w
0t
0q
#250000
1!
1?
1c
0k
1o
0n
0p
1d
0m
1n
1p
1q
1\
0[
0q
1R
0S
04
13
#270000
0!
0,
0?
0B
0f
0c
0j
0l
0n
0p
1q
1t
1w
1z
1}
1"!
0q
1s
0t
0v
0w
1y
0z
0|
0}
1!!
0"!
#280000
1,
1B
1f
1j
1l
1n
1p
1q
0s
1t
1v
1w
0y
1z
1|
1}
0!!
1"!
0"!
0}
0z
0w
0t
0q
#290000
1!
1?
1c
1k
0d
1m
0n
0p
1[
1q
1S
14
#310000
0!
0,
0?
0B
0f
0c
0j
0l
1n
0q
1s
1t
1w
1z
1}
1"!
0t
0v
0w
1y
0z
0|
0}
1!!
0"!
#320000
1,
1B
1f
1j
1l
0n
1q
0s
1t
1v
1w
0y
1z
1|
1}
0!!
1"!
0"!
0}
0z
0w
0t
#330000
1!
1?
1c
0k
0o
1r
0q
1s
1n
1p
1d
0m
0n
1q
0s
1t
1]
0\
0[
0t
1Q
0R
0S
04
03
12
#350000
0!
0,
0?
0B
0f
0c
0j
0l
1n
0q
1s
1t
1w
1z
1}
1"!
0t
0v
0w
1y
0z
0|
0}
1!!
0"!
#360000
1,
1B
1f
1j
1l
0n
1q
0s
1t
1v
1w
0y
1z
1|
1}
0!!
1"!
0"!
0}
0z
0w
0t
#370000
1!
1?
1c
1k
0d
1m
1n
1[
1S
14
#390000
0!
0,
0?
0B
0f
0c
0j
0l
0n
0p
0q
1s
1t
1w
1z
1}
1"!
0t
0v
1q
0w
1y
0z
0|
0}
1!!
0"!
